Week2Assignment
…
library(readxl)
library(countrycode)

# Load each dataset into individual dataframes

# GDP per capita
gdp <- read_excel("data/API_NY.GDP.PCAP.CD_DS2_en_excel_v2_85284.xls", skip = 3)
gdp <- select(gdp, "Country Name", "Country Code", gdp_per_cap = "2019")
gdp

# A tibble: 266 × 3
   `Country Name`              `Country Code` gdp_per_cap
   <chr>                       <chr>                <dbl>
 1 Aruba                       ABW                 31096.
 2 Africa Eastern and Southern AFE                  1494.
 3 Afghanistan                 AFG                   497.
 4 Africa Western and Central  AFW                  1784.
 5 Angola                      AGO                  2190.
 6 Albania                     ALB                  5460.
 7 Andorra                     AND                 41258.
 8 Arab World                  ARB                  6525.
 9 United Arab Emirates        ARE                 44251.
10 Argentina                   ARG                  9956.
# ℹ 256 more rows

# Life Expectancy
life_expectancy <- read_excel("data/API_SP.DYN.LE00.IN_DS2_en_excel_v2_85119.xls", skip = 3)
life_expectancy <- select(life_expectancy, "Country Name", "Country Code", life_exp = "2019")
life_expectancy

# A tibble: 266 × 3
   `Country Name`              `Country Code` life_exp
   <chr>                       <chr>             <dbl>
 1 Aruba                       ABW                76.0
 2 Africa Eastern and Southern AFE                63.9
 3 Afghanistan                 AFG                62.9
 4 Africa Western and Central  AFW                57.1
 5 Angola                      AGO                63.1
 6 Albania                     ALB                79.5
 7 Andorra                     AND                84.1
 8 Arab World                  ARB                71.8
 9 United Arab Emirates        ARE                82.6
10 Argentina                   ARG                76.8
# ℹ 256 more rows

# Population
population <- read_excel("data/API_SP.POP.TOTL_DS2_en_excel_v2_85347.xls", skip = 3)
population <- select(population, "Country Name", "Country Code", pop = "2019")
population

# A tibble: 266 × 3
   `Country Name`              `Country Code`       pop
   <chr>                       <chr>              <dbl>
 1 Aruba                       ABW               109203
 2 Africa Eastern and Southern AFE            675950189
 3 Afghanistan                 AFG             37856121
 4 Africa Western and Central  AFW            463365429
 5 Angola                      AGO             32375632
 6 Albania                     ALB              2854191
 7 Andorra                     AND                76474
 8 Arab World                  ARB            444281315
 9 United Arab Emirates        ARE              9445785
10 Argentina                   ARG             44973465
# ℹ 256 more rows

Combine all three dataframes into one

# A tibble: 266 × 5
   `Country Name`              `Country Code` gdp_per_cap life_exp       pop
   <chr>                       <chr>                <dbl>    <dbl>     <dbl>
 1 Aruba                       ABW                 31096.     76.0    109203
 2 Africa Eastern and Southern AFE                  1494.     63.9 675950189
 3 Afghanistan                 AFG                   497.     62.9  37856121
 4 Africa Western and Central  AFW                  1784.     57.1 463365429
 5 Angola                      AGO                  2190.     63.1  32375632
 6 Albania                     ALB                  5460.     79.5   2854191
 7 Andorra                     AND                 41258.     84.1     76474
 8 Arab World                  ARB                  6525.     71.8 444281315
 9 United Arab Emirates        ARE                 44251.     82.6   9445785
10 Argentina                   ARG                  9956.     76.8  44973465
# ℹ 256 more rows
…
Final data frame

# A tibble: 209 × 6
   name                code  gdp_per_cap life_exp      pop continent
   <chr>               <chr>       <dbl>    <dbl>    <dbl> <chr>    
 1 Afghanistan         AFG          497.     62.9 37856121 Asia     
 2 Albania             ALB         5460.     79.5  2854191 Europe   
 3 Algeria             DZA         4468.     75.7 43294546 Africa   
 4 American Samoa      ASM        12886.     72.8    50209 Oceania  
 5 Andorra             AND        41258.     84.1    76474 Europe   
 6 Angola              AGO         2190.     63.1 32375632 Africa   
 7 Antigua and Barbuda ATG        18884.     77.2    91364 Americas 
 8 Argentina           ARG         9956.     76.8 44973465 Americas 
 9 Armenia             ARM         4597.     76.2  2962500 Asia     
10 Aruba               ABW        31096.     76.0   109203 Americas 
# ℹ 199 more rows
…
2.4 Split into male and female blocks

Find where “Total Female Residents” occurs and split into two tibbles.

# Find where the female block starts, then split
female_start <- which(sg_raw$`Data Series` == "Total Female Residents")
sg_male   <- sg_raw %>% slice(1:(female_start - 1))
sg_female <- sg_raw %>% slice((female_start + 1):n())
sg_male

# A tibble: 24 × 69
   `Data Series` `2024` `2023` `2022` `2021` `2020` `2019` `2018` `2017` `2016`
   <chr>          <dbl>  <dbl>  <dbl>  <dbl>  <dbl>  <dbl>  <dbl>  <dbl>  <dbl>
 1 0 - 4 Years    87373  89629  90906  91043  93388  94666  94916  96041  95678
 2 5 - 9 Years   103289 103249 103270 101980 101729 101051 101636 102010 102426
 3 10 - 14 Years 104252 104335 103066 102112 104967 105661 105026 104885 105589
 4 15 - 19 Years 107262 106461 105521 104927 109868 113555 116102 119500 122911
 5 20 - 24 Years 114415 116897 119622 122309 124617 126764 129956 131825 132046
 6 25 - 29 Years 134838 138511 139727 138548 142382 142465 143758 142427 137243
 7 30 - 34 Years 155182 156440 153268 145681 143022 140208 133775 132378 135596
 8 35 - 39 Years 148792 141580 137395 137345 141357 142118 143661 142776 143553
 9 40 - 44 Years 146404 146677 142574 139814 142801 143869 145974 150641 152466
10 45 - 49 Years 143865 145297 147359 146202 151690 151637 149811 148095 147517
# ℹ 14 more rows
# ℹ 59 more variables: `2015` <dbl>, `2014` <dbl>, `2013` <dbl>, `2012` <dbl>,
#   `2011` <dbl>, `2010` <dbl>, `2009` <dbl>, `2008` <dbl>, `2007` <dbl>,
#   `2006` <dbl>, `2005` <dbl>, `2004` <dbl>, `2003` <dbl>, `2002` <dbl>,
#   `2001` <dbl>, `2000` <dbl>, `1999` <dbl>, `1998` <dbl>, `1997` <dbl>,
#   `1996` <dbl>, `1995` <dbl>, `1994` <dbl>, `1993` <dbl>, `1992` <dbl>,
#   `1991` <dbl>, `1990` <dbl>, `1989` <dbl>, `1988` <dbl>, `1987` <dbl>, …

sg_female

# A tibble: 25 × 69
   `Data Series` `2024` `2023` `2022` `2021` `2020` `2019` `2018` `2017` `2016`
   <chr>          <dbl>  <dbl>  <dbl>  <dbl>  <dbl>  <dbl>  <dbl>  <dbl>  <dbl>
 1 0 - 4 Years    83123  85639  87179  87392  89688  90689  90612  91612  91482
 2 5 - 9 Years    98793  98725  98090  96780  97008  96724  97430  98565  99083
 3 10 - 14 Years 100139 100124  99313  97881 101426 102265 101504 101368 101906
 4 15 - 19 Years 103805 103118 101228  99986 105366 108667 110418 113473 116860
 5 20 - 24 Years 110229 112169 113681 115411 119920 122315 125560 127247 128808
 6 25 - 29 Years 134698 139378 140355 139489 144615 145729 147873 147771 142745
 7 30 - 34 Years 165304 167187 163885 155379 154776 153238 147622 146962 149948
 8 35 - 39 Years 165783 158457 153586 151876 158158 158700 160059 158180 158445
 9 40 - 44 Years 163855 163496 157297 152956 156490 156894 157666 160843 160979
10 45 - 49 Years 157359 157218 156958 153923 160050 160045 158027 155362 153666
# ℹ 15 more rows
# ℹ 59 more variables: `2015` <dbl>, `2014` <dbl>, `2013` <dbl>, `2012` <dbl>,
#   `2011` <dbl>, `2010` <dbl>, `2009` <dbl>, `2008` <dbl>, `2007` <dbl>,
#   `2006` <dbl>, `2005` <dbl>, `2004` <dbl>, `2003` <dbl>, `2002` <dbl>,
#   `2001` <dbl>, `2000` <dbl>, `1999` <dbl>, `1998` <dbl>, `1997` <dbl>,
#   `1996` <dbl>, `1995` <dbl>, `1994` <dbl>, `1993` <dbl>, `1992` <dbl>,
#   `1991` <dbl>, `1990` <dbl>, `1989` <dbl>, `1988` <dbl>, `1987` <dbl>, …
…
  sg_female %>%
    pivot_longer(
      cols      = -`Data Series`, 
      names_to  = "year", 
      values_to = "pop"
    ) %>%
    mutate(sex = "Female")
)
sg_long

# A tibble: 3,332 × 4
   `Data Series` year    pop sex  
   <chr>         <chr> <dbl> <chr>
 1 0 - 4 Years   2024  87373 Male 
 2 0 - 4 Years   2023  89629 Male 
 3 0 - 4 Years   2022  90906 Male 
 4 0 - 4 Years   2021  91043 Male 
 5 0 - 4 Years   2020  93388 Male 
 6 0 - 4 Years   2019  94666 Male 
 7 0 - 4 Years   2018  94916 Male 
 8 0 - 4 Years   2017  96041 Male 
 9 0 - 4 Years   2016  95678 Male 
10 0 - 4 Years   2015  93852 Male 
# ℹ 3,322 more rows
…
Extract numeric age, flag cumulative rows, sort so closed bins beat “& Over,” then dedupe.

sg_tidy <- sg_long %>%
  rename(cohort = `Data Series`) %>%
  mutate(
    year          = as.integer(year),
    age           = as.integer(str_extract(cohort, "^[0-9]+")),
    is_cumulative = str_detect(cohort, "Years & Over"),
    sex           = factor(sex, levels = c("Male", "Female"))
  ) %>%
  arrange(sex, year, age, is.na(pop), is_cumulative) %>%
  distinct(sex, year, age, .keep_all = TRUE)
sg_tidy

# A tibble: 2,652 × 6
   cohort         year    pop sex     age is_cumulative
   <chr>         <int>  <dbl> <fct> <int> <lgl>        
 1 0 - 4 Years    1957 136712 Male      0 FALSE        
 2 5 - 9 Years    1957 112030 Male      5 FALSE        
 3 10 - 14 Years  1957  71219 Male     10 FALSE        
 4 15 - 19 Years  1957  70137 Male     15 FALSE        
 5 20 - 24 Years  1957  61254 Male     20 FALSE        
 6 25 - 29 Years  1957  59776 Male     25 FALSE        
 7 30 - 34 Years  1957  50148 Male     30 FALSE        
 8 35 - 39 Years  1957  46506 Male     35 FALSE        
 9 40 - 44 Years  1957  43041 Male     40 FALSE        
10 45 - 49 Years  1957  37773 Male     45 FALSE        
# ℹ 2,642 more rows
…
Keep only decades (1960–2020), drop NA ages/pops and zero counts, then select final columns.

sg_tidy <- sg_tidy %>%
  filter(
    year %in% seq(1960, 2020, by = 10),
    !is.na(age),
    !is.na(pop),
    pop != 0
  ) %>%
  select(age, sex, year, pop) %>%
  arrange(age, sex, year)
sg_tidy

# A tibble: 250 × 4
     age sex     year    pop
   <int> <fct>  <int>  <dbl>
 1     0 Male    1960 152200
 2     0 Male    1970 118335
 3     0 Male    1980  96694
 4     0 Male    1990 116014
 5     0 Male    2000 116756
 6     0 Male    2010  98890
 7     0 Male    2020  93388
 8     0 Female  1960 144800
 9     0 Female  1970 111830
10     0 Female  1980  89146
# ℹ 240 more rows
…
# Compare to the provided CSV to verify
sg_ref <- read_csv(
  "sg_5yr_cohorts.csv",
  col_types = cols(sex = col_factor(levels = c("Male", "Female")))
)
waldo::compare(sg_tidy, sg_ref, tolerance = 1e-12)

✔ No differences

2. 9 Display the final tidy table

print(sg_tidy, n = 20)

# A tibble: 250 × 4
     age sex     year    pop
   <int> <fct>  <int>  <dbl>
 1     0 Male    1960 152200
 2     0 Male    1970 118335
 3     0 Male    1980  96694
 4     0 Male    1990 116014
 5     0 Male    2000 116756
 6     0 Male    2010  98890
 7     0 Male    2020  93388
 8     0 Female  1960 144800
 9     0 Female  1970 111830
10     0 Female  1980  89146
11     0 Female  1990 108035
12     0 Female  2000 108949
13     0 Female  2010  95542
14     0 Female  2020  89688
15     5 Male    1960 128400
16     5 Male    1970 140633
17     5 Male    1980 112015
18     5 Male    1990 106723
19     5 Male    2000 132200
20     5 Male    2010 110215
# ℹ 230 more rows
