OilVisualisation
…
New names:
• `2023` -> `2023...60`
• `2023` -> `2023...61`
• `2023` -> `2023...63`

Data Cleaning

df <- df %>%drop_na() %>%
  mutate(across(1, ~ifelse(str_detect(., "of which: OECD"), "OECD", .)))
df

# A tibble: 70 × 2
   `Country/Region`    Production_2022
   <chr>                         <dbl>
 1 Canada                        5575.
 2 Mexico                        1943.
 3 US                           17844.
 4 Total North America          25361.
 5 Argentina                      955.
 6 Brazil                        3112.
 7 Colombia                       754.
 8 Ecuador                        481.
 9 Guyana                         278.
10 Peru                           128.
# ℹ 60 more rows

df_clean <- df %>%
  filter(!str_detect(`Country/Region`, "^Total|^Other|^Non|^OPEC|^OECD|European Union|World|USSR")) %>%
  mutate(iso_a3 = countrycode(`Country/Region`, "country.name", "iso3c"))
df_clean

# A tibble: 50 × 3
   `Country/Region`  Production_2022 iso_a3
   <chr>                       <dbl> <chr> 
 1 Canada                     5575.  CAN   
 2 Mexico                     1943.  MEX   
 3 US                        17844.  USA   
 4 Argentina                   955.  ARG   
 5 Brazil                     3112.  BRA   
 6 Colombia                    754.  COL   
 7 Ecuador                     481.  ECU   
 8 Guyana                      278.  GUY   
 9 Peru                        128.  PER   
10 Trinidad & Tobago            73.9 TTO   
# ℹ 40 more rows
…
# Print final dataset for verification
print("Final dataset:")

[1] "Final dataset:"

print(oil_final)

# A tibble: 51 × 3
   Country           Production_2022 Continent
   <fct>                       <dbl> <fct>    
 1 Algeria                      1443 Africa   
 2 Angola                       1191 Africa   
 3 Chad                          124 Africa   
 4 Egypt                         613 Africa   
 5 Equatorial Guinea             121 Africa   
 6 Gabon                         191 Africa   
 7 Libya                        1143 Africa   
 8 Nigeria                      1445 Africa   
 9 Other Africa                  284 Africa   
10 South Sudan                   141 Africa   
# ℹ 41 more rows
…
# Print final dataset for verification
print("Final dataset:")

[1] "Final dataset:"

print(oil_final)

# A tibble: 51 × 3
   Country           Production_2022 Continent
   <fct>                       <dbl> <fct>    
 1 Algeria                      1443 Africa   
 2 Angola                       1191 Africa   
 3 Chad                          124 Africa   
 4 Egypt                         613 Africa   
 5 Equatorial Guinea             121 Africa   
 6 Gabon                         191 Africa   
 7 Libya                        1143 Africa   
 8 Nigeria                      1445 Africa   
 9 Other Africa                  284 Africa   
10 South Sudan                   141 Africa   
# ℹ 41 more rows
…
